Noma Metagenomics: Short-read taxonomic based metagenomic analysis of noma vs healthy human saliva samples in R
…
# Apply FDR Correction and sort 
results_table = results_table %>%
  mutate(
    q_value_BH = p.adjust(p_value, method = "BH")
  ) %>%
  # Reorder columns and sort by significance
  select(Genus, p_value, q_value_BH, log2_fold_change) %>%
  arrange(q_value_BH)

# View your final results table 
print(results_table)

# A tibble: 22 × 4
   Genus          p_value    q_value_BH log2_fold_change
   <chr>            <dbl>         <dbl>            <dbl>
 1 Streptococcus 1.26e-10 0.00000000138            -3.41
 2 Treponema     1.26e-10 0.00000000138             5.79
 3 Bacteroides   8.80e-10 0.00000000645             2.17
 4 Rothia        8.42e- 9 0.0000000463             -6.68
 5 Filifactor    6.39e- 8 0.000000234               4.84
 6 Schaalia      6.39e- 8 0.000000234              -6.59
 7 Porphyromonas 1.52e- 7 0.000000479               3.15
 8 Dialister     2.01e- 7 0.000000552               5.42
 9 Veillonella   1.45e- 6 0.00000353               -3.70
10 Actinomyces   1.81e- 6 0.00000398               -4.03
# ℹ 12 more rows
…
